<?xml version="1.0" encoding="UTF-8" standalone="no"?>
<!-- Created with Inkscape (http://www.inkscape.org/) -->

<svg
   width="97.967117mm"
   height="78.884018mm"
   viewBox="0 0 97.967117 78.884018"
   version="1.1"
   id="svg218"
   inkscape:version="1.1 (c68e22c387, 2021-05-23)"
   sodipodi:docname="compute-work-1.svg"
   xmlns:inkscape="http://www.inkscape.org/namespaces/inkscape"
   xmlns:sodipodi="http://sodipodi.sourceforge.net/DTD/sodipodi-0.dtd"
   xmlns="http://www.w3.org/2000/svg"
   xmlns:svg="http://www.w3.org/2000/svg">
  <sodipodi:namedview
     id="namedview220"
     pagecolor="#ffffff"
     bordercolor="#666666"
     borderopacity="1.0"
     inkscape:pageshadow="2"
     inkscape:pageopacity="0.0"
     inkscape:pagecheckerboard="0"
     inkscape:document-units="mm"
     showgrid="false"
     fit-margin-top="0"
     fit-margin-left="0"
     fit-margin-right="0"
     fit-margin-bottom="0"
     inkscape:zoom="1.9598765"
     inkscape:cx="256.90394"
     inkscape:cy="138.0189"
     inkscape:window-width="1280"
     inkscape:window-height="995"
     inkscape:window-x="1351"
     inkscape:window-y="-9"
     inkscape:window-maximized="1"
     inkscape:current-layer="layer1" />
  <defs
     id="defs215">
    <marker
       style="overflow:visible;"
       id="Arrow2Lend"
       refX="0.0"
       refY="0.0"
       orient="auto"
       inkscape:stockid="Arrow2Lend"
       inkscape:isstock="true">
      <path
         transform="scale(1.1) rotate(180) translate(1,0)"
         d="M 8.7185878,4.0337352 L -2.2072895,0.016013256 L 8.7185884,-4.0017078 C 6.9730900,-1.6296469 6.9831476,1.6157441 8.7185878,4.0337352 z "
         style="fill-rule:evenodd;fill:context-stroke;stroke-width:0.62500000;stroke-linejoin:round;"
         id="path2575" />
    </marker>
    <marker
       style="overflow:visible"
       id="Arrow1Lstart"
       refX="0.0"
       refY="0.0"
       orient="auto"
       inkscape:stockid="Arrow1Lstart"
       inkscape:isstock="true">
      <path
         transform="scale(0.8) translate(12.5,0)"
         style="fill-rule:evenodd;fill:context-stroke;stroke:context-stroke;stroke-width:1.0pt"
         d="M 0.0,0.0 L 5.0,-5.0 L -12.5,0.0 L 5.0,5.0 L 0.0,0.0 z "
         id="path2554" />
    </marker>
    <pattern
       id="EMFhbasepattern"
       patternUnits="userSpaceOnUse"
       width="6"
       height="6"
       x="0"
       y="0" />
    <marker
       style="overflow:visible"
       id="Arrow2Lend-6"
       refX="0"
       refY="0"
       orient="auto"
       inkscape:stockid="Arrow2Lend"
       inkscape:isstock="true">
      <path
         transform="matrix(-1.1,0,0,-1.1,-1.1,0)"
         d="M 8.7185878,4.0337352 -2.2072895,0.01601326 8.7185884,-4.0017078 c -1.7454984,2.3720609 -1.7354408,5.6174519 -6e-7,8.035443 z"
         style="fill:context-stroke;fill-rule:evenodd;stroke-width:0.625;stroke-linejoin:round"
         id="path2575-2" />
    </marker>
  </defs>
  <g
     inkscape:label="Layer 1"
     inkscape:groupmode="layer"
     id="layer1"
     transform="translate(-23.376444,-66.397993)">
    <g
       id="g3243">
      <path
         style="stroke-opacity:1;stroke-dasharray:none;stroke-miterlimit:4;stroke-linejoin:round;stroke-linecap:butt;stroke-width:1.05769px;stroke:blue;fill:none;"
         d="m 51.405291,88.399316 c 14.019709,0 25.384614,11.367548 25.384614,25.384614"
         id="path324"
         sodipodi:nodetypes="cc" />
      <path
         style="fill:#000000;fill-opacity:1;fill-rule:nonzero;stroke:#000000;stroke-width:0.00264423px;stroke-linecap:butt;stroke-linejoin:round;stroke-miterlimit:4;stroke-dasharray:none;stroke-opacity:1"
         d="M 52.066347,114.4873 68.553127,97.963498 68.373319,97.78369 51.886541,114.31013 Z m 16.396874,-16.613705 0.253847,2.242305 1.240144,-3.741585 -3.736297,1.253366 z"
         id="path330" />
      <text
         xml:space="preserve"
         style="font-style:italic;font-variant:normal;font-weight:400;font-size:11.2944px;line-height:125%;font-family:'Times New Roman';text-align:start;letter-spacing:0px;word-spacing:0px;text-anchor:start;fill:#000000;fill-opacity:1;stroke:none;stroke-width:0.264583"
         x="76.492004"
         y="96.533028"
         id="text336"><tspan
           sodipodi:role="line"
           x="76.492004"
           y="96.533028"
           id="tspan334"
           style="stroke-width:0.264583"><tspan
             dx="0"
             dy="0"
             style="font-style:italic;font-variant:normal;font-weight:400;font-size:11.2944px;font-family:'Times New Roman';fill:#000000;stroke-width:0.264583"
             id="tspan332">ρ</tspan></tspan></text>
      <text
         xml:space="preserve"
         style="font-style:normal;font-variant:normal;font-weight:400;font-size:11.2944px;line-height:125%;font-family:'Times New Roman';text-align:start;letter-spacing:0px;word-spacing:0px;text-anchor:start;fill:#000000;fill-opacity:1;stroke:none;stroke-width:0.264583"
         x="85.545845"
         y="96.533028"
         id="text342"><tspan
           sodipodi:role="line"
           x="85.545845"
           y="96.533028"
           id="tspan340"
           style="stroke-width:0.264583"><tspan
             dx="0"
             dy="0"
             style="font-style:normal;font-variant:normal;font-weight:400;font-size:11.2944px;font-family:'Times New Roman';fill:#000000;stroke-width:0.264583"
             id="tspan338">= </tspan></tspan></text>
      <text
         xml:space="preserve"
         style="font-style:normal;font-variant:normal;font-weight:400;font-size:11.2944px;line-height:125%;font-family:'Times New Roman';text-align:start;letter-spacing:0px;word-spacing:0px;text-anchor:start;fill:#000000;fill-opacity:1;stroke:none;stroke-width:0.264583"
         x="94.684311"
         y="96.533028"
         id="text348"><tspan
           sodipodi:role="line"
           x="94.684311"
           y="96.533028"
           id="tspan346"
           style="stroke-width:0.264583"><tspan
             dx="0"
             dy="0"
             style="font-style:normal;font-variant:normal;font-weight:400;font-size:11.2944px;font-family:'Times New Roman';fill:#000000;stroke-width:0.264583"
             id="tspan344">3</tspan></tspan></text>
      <text
         xml:space="preserve"
         style="font-style:italic;font-variant:normal;font-weight:400;font-size:11.2944px;line-height:125%;font-family:'Times New Roman';text-align:start;letter-spacing:0px;word-spacing:0px;text-anchor:start;fill:#000000;fill-opacity:1;stroke:none;stroke-width:0.264583"
         x="104.76062"
         y="122.14072"
         id="text354"><tspan
           sodipodi:role="line"
           x="104.76062"
           y="122.14072"
           id="tspan352"
           style="stroke-width:0.264583"><tspan
             dx="0"
             dy="0"
             style="font-style:italic;font-variant:normal;font-weight:400;font-size:11.2944px;font-family:'Times New Roman';fill:#000000;stroke-width:0.264583"
             id="tspan350">x</tspan></tspan></text>
      <text
         xml:space="preserve"
         style="font-style:italic;font-variant:normal;font-weight:400;font-size:11.2944px;line-height:125%;font-family:'Times New Roman';text-align:start;letter-spacing:0px;word-spacing:0px;text-anchor:start;fill:#000000;fill-opacity:1;stroke:none;stroke-width:0.264583"
         x="56.332851"
         y="74.058495"
         id="text360"><tspan
           sodipodi:role="line"
           x="56.332851"
           y="74.058495"
           id="tspan358"
           style="stroke-width:0.264583"><tspan
             dx="0"
             dy="0"
             style="font-style:italic;font-variant:normal;font-weight:400;font-size:11.2944px;font-family:'Times New Roman';fill:#000000;stroke-width:0.264583"
             id="tspan356">y</tspan></tspan></text>
      <text
         xml:space="preserve"
         style="font-style:normal;font-variant:normal;font-weight:400;font-size:11.2944px;line-height:125%;font-family:'Times New Roman';text-align:start;letter-spacing:0px;word-spacing:0px;text-anchor:start;fill:#000000;fill-opacity:1;stroke:none;stroke-width:0.264583"
         x="75.142799"
         y="125.26558"
         id="text366"><tspan
           sodipodi:role="line"
           x="75.142799"
           y="125.26558"
           id="tspan364"
           style="stroke-width:0.264583"><tspan
             dx="0"
             dy="0"
             style="font-style:normal;font-variant:normal;font-weight:400;font-size:11.2944px;font-family:'Times New Roman';fill:#000000;stroke-width:0.264583"
             id="tspan362">B</tspan></tspan></text>
      <text
         xml:space="preserve"
         style="font-style:normal;font-variant:normal;font-weight:400;font-size:11.2944px;line-height:125%;font-family:'Times New Roman';text-align:start;letter-spacing:0px;word-spacing:0px;text-anchor:start;fill:#000000;fill-opacity:1;stroke:none;stroke-width:0.264583"
         x="41.518608"
         y="90.412521"
         id="text372"><tspan
           sodipodi:role="line"
           x="41.518608"
           y="90.412521"
           id="tspan370"
           style="stroke-width:0.264583"><tspan
             dx="0"
             dy="0"
             style="font-style:normal;font-variant:normal;font-weight:400;font-size:11.2944px;font-family:'Times New Roman';fill:#000000;stroke-width:0.264583"
             id="tspan368">A</tspan></tspan></text>
      <path
         style="stroke-opacity:1;stroke-dasharray:none;stroke-miterlimit:4;stroke-linejoin:round;stroke-linecap:butt;stroke-width:1.05769px;stroke:red;fill:none;"
         d="M 75.986058,114.41855 H 51.997597"
         id="path374" />
      <path
         style="stroke-opacity:1;stroke-dasharray:none;stroke-miterlimit:4;stroke-linejoin:round;stroke-linecap:butt;stroke-width:1.05769px;stroke:red;fill:none;"
         d="M 51.997597,88.399316 V 114.41855"
         id="path376" />
      <circle
         style="stroke-width:0.264583;fill-rule:evenodd;fill:green;"
         id="path936"
         cx="51.928947"
         cy="87.795486"
         r="2" />
      <circle
         style="stroke-width:0.264583;fill-rule:evenodd;fill:green;"
         id="path936-1"
         cx="76.971443"
         cy="113.91799"
         r="2" />
      <path
         style="fill:none;stroke:#000000;stroke-width:0.5;stroke-linecap:butt;stroke-linejoin:miter;stroke-miterlimit:4;stroke-dasharray:none;stroke-opacity:1;marker-end:url(#Arrow2Lend)"
         d="M 38.515677,114.65278 H 106.12339"
         id="path2896" />
      <path
         style="fill:none;stroke:#000000;stroke-width:0.5;stroke-linecap:butt;stroke-linejoin:miter;stroke-miterlimit:4;stroke-dasharray:none;stroke-opacity:1;marker-end:url(#Arrow2Lend-6)"
         d="M 51.87025,134.95885 V 67.35115"
         id="path2896-4" />
    </g>
  </g>
</svg>
